<?xml version="1.0" standalone="no"?>
<!DOCTYPE svg PUBLIC "-//W3C//DTD SVG 20010904//EN"
 "http://www.w3.org/TR/2001/REC-SVG-20010904/DTD/svg10.dtd">
<svg version="1.0" xmlns="http://www.w3.org/2000/svg"
 width="260.000000pt" height="260.000000pt" viewBox="0 0 260.000000 260.000000"
 preserveAspectRatio="xMidYMid meet">
<metadata>
Created by potrace 1.11, written by Peter Selinger 2001-2013
</metadata>
<g transform="translate(0.000000,260.000000) scale(0.100000,-0.100000)"
fill="#000000" stroke="none">
<path d="M1014 2478 c-30 -24 -462 -380 -548 -452 -27 -22 -56 -46 -64 -52
-12 -9 -9 -25 21 -115 76 -224 267 -816 267 -827 0 -12 75 -35 195 -57 11 -3
38 -9 60 -14 54 -13 138 -33 330 -76 88 -20 165 -38 170 -39 6 -2 26 -6 46
-10 l35 -7 34 -122 c41 -148 77 -275 96 -342 8 -27 16 -57 19 -65 4 -17 43
-154 53 -187 6 -19 11 -16 42 30 19 29 87 126 150 217 64 91 141 201 172 245
l56 81 -19 74 c-11 41 -21 84 -23 95 -2 11 -9 40 -16 65 -7 25 -14 52 -15 60
-2 8 -25 101 -52 206 -43 173 -50 192 -73 202 -14 6 -81 32 -150 57 -69 25
-132 48 -140 52 -8 3 -19 7 -25 9 -5 1 -41 14 -80 29 -38 14 -113 42 -166 61
l-96 36 -12 51 c-7 29 -24 90 -38 137 -14 47 -37 130 -52 185 -66 238 -134
471 -140 483 -6 10 -14 7 -37 -10z"/>
</g>
</svg>
